﻿Time,Time Code,Country Name,Country Code,"Population, total [SP.POP.TOTL]",Surface area (sq. km) [AG.SRF.TOTL.K2],Population density (people per sq. km of land area) [EN.POP.DNST],"GNI per capita, Atlas method (current US$) [NY.GNP.PCAP.CD]",Disaster risk reduction progress score (1-5 scale; 5=best) [EN.CLC.DRSK.XQ]
2011,YR2011,Afghanistan,AFG,29105480,652860,44.581502925589,570,
2011,YR2011,Albania,ALB,2904780,28750,106.013868613139,4390,
2011,YR2011,Algeria,DZA,37762962,2381740,15.8551991401244,4460,3.5
2011,YR2011,American Samoa,ASM,55274,200,276.37,,
2011,YR2011,Andorra,ADO,77865,470,165.670212765957,,
2011,YR2011,Angola,AGO,20180490,1246700,16.1871260126735,4010,
2011,YR2011,Antigua and Barbuda,ATG,88152,440,200.345454545455,12370,2.75
2011,YR2011,Argentina,ARG,40728738,2780400,14.8824813917543,,3.25
2011,YR2011,Armenia,ARM,2964120,29740,104.113804004215,3430,3
2011,YR2011,Aruba,ABW,101932,180,566.288888888889,,
2011,YR2011,Australia,AUS,22340000,7741220,2.90798328625542,50060,4
2011,YR2011,Austria,AUT,8391643,83879,101.829205547938,50410,
2011,YR2011,Azerbaijan,AZE,9173082,86600,110.976336228798,5530,
2011,YR2011,"Bahamas, The",BHS,366331,13880,36.5965034965035,21550,
2011,YR2011,Bahrain,BHR,1292764,760,1701.00526315789,18050,
2011,YR2011,Bangladesh,BGD,152862431,148460,1174.3291925943,870,4
2011,YR2011,Barbados,BRB,281804,430,655.358139534884,15660,4
2011,YR2011,Belarus,BLR,9473000,207600,46.6857227342171,6130,
2011,YR2011,Belgium,BEL,11047744,30530,364.85284015852,47130,
2011,YR2011,Belize,BLZ,316280,22970,13.8658483121438,4310,
2011,YR2011,Benin,BEN,9779795,114760,86.7310659808443,720,
2011,YR2011,Bermuda,BMU,64564,50,1291.28,105210,
2011,YR2011,Bhutan,BTN,729429,38394,19.1365794789726,2180,
2011,YR2011,Bolivia,BOL,10324445,1098580,9.53055017077449,1960,2.25
2011,YR2011,Bosnia and Herzegovina,BIH,3839322,51210,75.2808235294118,4680,
2011,YR2011,Botswana,BWA,1986701,581730,3.50555114428387,6930,3
2011,YR2011,Brazil,BRA,196935134,8515770,23.5620764907025,10700,4.5
2011,YR2011,Brunei Darussalam,BRN,406512,5770,77.1370018975332,,2.75
2011,YR2011,Bulgaria,BGR,7348328,111000,67.6890935887988,6870,3.5
2011,YR2011,Burkina Faso,BFA,15995313,274220,58.4624013157895,630,
2011,YR2011,Burundi,BDI,9540362,27830,371.509423676012,220,3.25
2011,YR2011,Cabo Verde,CPV,490556,4030,121.726054590571,3570,3.5
2011,YR2011,Cambodia,KHM,14605862,181040,82.7433831860412,810,
2011,YR2011,Cameroon,CMR,21156272,475440,44.7552875970468,1200,
2011,YR2011,Canada,CAN,34342780,9984670,3.77662530749952,46860,4.25
2011,YR2011,Cayman Islands,CYM,56601,264,235.8375,,3
2011,YR2011,Central African Republic,CAF,4436217,622980,7.12096214966773,490,
2011,YR2011,Chad,TCD,12080037,1284000,9.59342201397713,900,
2011,YR2011,Channel Islands,CHI,160407,190,844.247368421053,,
2011,YR2011,Chile,CHL,17308449,756096,23.2786874001388,12290,2.75
2011,YR2011,China,CHN,1344130000,9562911,143.172112343875,4900,
2011,YR2011,Colombia,COL,47078792,1141750,42.4324398377648,6100,3.75
2011,YR2011,Comoros,COM,700216,1861,376.257925846319,820,1.75
2011,YR2011,"Congo, Dem. Rep.",ZAR,63931512,2344860,28.2003096535145,350,
2011,YR2011,"Congo, Rep.",COG,4225359,342000,12.3729399707174,2200,
2011,YR2011,Costa Rica,CRI,4737680,51100,92.7865256560909,7750,4.5
2011,YR2011,Cote d'Ivoire,CIV,19389954,322460,60.9746981132075,1220,2.5
2011,YR2011,Croatia,HRV,4280622,56590,76.4943173695497,14040,
2011,YR2011,Cuba,CUB,11276053,109880,105.938115370162,5890,4.5
2011,YR2011,Curacao,CUW,150830,444,339.707207207207,,
2011,YR2011,Cyprus,CYP,1116513,9250,120.83474025974,29070,
2011,YR2011,Czech Republic,CZE,10496088,78870,135.889280165717,19380,2.75
2011,YR2011,Denmark,DNK,5570572,43090,131.288522271977,61470,
2011,YR2011,Djibouti,DJI,846646,23200,36.5248490077653,,
2011,YR2011,Dominica,DMA,71401,750,95.2013333333333,6970,
2011,YR2011,Dominican Republic,DOM,10147598,48670,210.008236754967,5320,3
2011,YR2011,Ecuador,ECU,15246481,256370,61.3886334353358,4880,4.75
2011,YR2011,"Egypt, Arab Rep.",EGY,79392466,1001450,79.7553528554925,2730,
2011,YR2011,El Salvador,SLV,6256242,21040,301.942181467181,3490,3.25
2011,YR2011,Equatorial Guinea,GNQ,715996,28050,25.5257040998217,13430,
2011,YR2011,Eritrea,ERI,5932852,117600,58.7411089108911,390,
2011,YR2011,Estonia,EST,1327439,45230,31.3149091766926,15610,
2011,YR2011,Ethiopia,ETH,89393063,1104300,89.393063,390,
2011,YR2011,Faeroe Islands,FRO,49551,1396,35.4949856733524,,
2011,YR2011,Fiji,FJI,867921,18270,47.5052545155993,3710,2.75
2011,YR2011,Finland,FIN,5388272,338420,17.7309947678436,49900,3.5
2011,YR2011,France,FRA,65343588,549087,119.336595094209,44220,
2011,YR2011,French Polynesia,PYF,270874,4000,74.0092896174863,,
2011,YR2011,Gabon,GAB,1594034,267670,6.18633911592347,8850,
2011,YR2011,"Gambia, The",GMB,1734966,11300,171.439328063241,510,
2011,YR2011,Georgia,GEO,4483350,69700,78.4378389726722,2850,2.75
2011,YR2011,Germany,DEU,81797673,357140,234.673149529493,46410,4.25
2011,YR2011,Ghana,GHA,24820706,238540,109.082824997803,1420,3.25
2011,YR2011,Greece,GRC,11123213,131960,86.2933514352211,24980,
2011,YR2011,Greenland,GRL,56890,410450,0.138603971251066,,
2011,YR2011,Grenada,GRD,105074,340,309.041176470588,7180,
2011,YR2011,Guam,GUM,160858,540,297.885185185185,,
2011,YR2011,Guatemala,GTM,14706578,108890,137.23943635685,2900,3.25
2011,YR2011,Guinea,GIN,11161530,245860,45.4237750284877,410,
2011,YR2011,Guinea-Bissau,GNB,1624228,36130,57.7605974395448,610,1
2011,YR2011,Guyana,GUY,790882,214970,4.01768859537719,3050,
2011,YR2011,Haiti,HTI,10032864,27750,364.037155297533,710,
2011,YR2011,Honduras,HND,7776669,112490,69.5028063276432,2050,3.75
2011,YR2011,"Hong Kong SAR, China",HKG,7071600,1100,6734.85714285714,35680,
2011,YR2011,Hungary,HUN,9971727,93030,110.148315475533,13020,
2011,YR2011,Iceland,ISL,319014,103000,3.18218453865337,37710,
2011,YR2011,India,IND,1221156319,3287260,410.722597277671,1440,3.25
2011,YR2011,Indonesia,IDN,243801639,1910930,134.580302720844,2920,3.25
2011,YR2011,"Iran, Islamic Rep.",IRN,75424285,1745150,46.3137668478094,,
2011,YR2011,Iraq,IRQ,31760020,435240,73.1258519064284,4870,
2011,YR2011,Ireland,IRL,4576794,70280,66.4362607054725,42060,
2011,YR2011,Isle of Man,IMY,84654,570,148.515789473684,,
2011,YR2011,Israel,ISR,7765800,22070,358.863216266174,31170,
2011,YR2011,Italy,ITA,59379449,301340,201.874784116407,37690,3.5
2011,YR2011,Jamaica,JAM,2699838,10990,249.292520775623,4800,3.75
2011,YR2011,Japan,JPN,127817277,377955,350.611778743948,45190,4.5
2011,YR2011,Jordan,JOR,6181000,89320,69.621536382068,4370,
2011,YR2011,Kazakhstan,KAZ,16556600,2724900,6.13275549135089,8190,
2011,YR2011,Kenya,KEN,42027891,580370,73.8445566995818,1020,4
2011,YR2011,Kiribati,KIR,99250,810,122.530864197531,2100,
2011,YR2011,"Korea, Dem. Rep.",PRK,24631291,120540,204.561838717714,,
2011,YR2011,"Korea, Rep.",KOR,49779440,100030,511.976139051733,22620,
2011,YR2011,Kosovo,KSV,1790957,10887,164.504179296409,3610,
2011,YR2011,Kuwait,KWT,3124705,17820,175.348204264871,45130,
2011,YR2011,Kyrgyz Republic,KGZ,5514600,199949,28.7518248175182,880,
2011,YR2011,Lao PDR,LAO,6521314,236800,28.255259965338,1090,2.25
2011,YR2011,Latvia,LVA,2059709,64480,33.1142926045016,13330,
2011,YR2011,Lebanon,LBN,4382790,10450,428.425219941349,9020,3
2011,YR2011,Lesotho,LSO,2029516,30360,66.8483530961792,1360,2.5
2011,YR2011,Liberia,LBR,4079697,111370,42.3556582225914,330,
2011,YR2011,Libya,LBY,6103233,1759540,3.46865260238471,,
2011,YR2011,Liechtenstein,LIE,36388,160,227.425,,
2011,YR2011,Lithuania,LTU,3028115,65300,48.3153301209433,13050,
2011,YR2011,Luxembourg,LUX,518347,2590,200.133976833977,71070,
2011,YR2011,"Macao SAR, China",MAC,546278,29.9,18270.1672240803,55770,
2011,YR2011,"Macedonia, FYR",MKD,2103890,25710,83.4214908802538,4720,3.25
2011,YR2011,Madagascar,MDG,21678934,587295,37.2621524763877,420,3.75
2011,YR2011,Malawi,MWI,15457531,118480,163.953447178617,360,1.75
2011,YR2011,Malaysia,MYS,28758968,330800,87.5330025871253,8840,3.75
2011,YR2011,Maldives,MDV,331964,300,1106.54666666667,5680,2.25
2011,YR2011,Mali,MLI,14416737,1240190,11.8151574754751,670,
2011,YR2011,Malta,MLT,416268,320,1300.8375,20100,
2011,YR2011,Marshall Islands,MHL,52495,180,291.638888888889,3900,1.75
2011,YR2011,Mauritania,MRT,3702763,1030700,3.59247404676433,970,
2011,YR2011,Mauritius,MUS,1252404,2040,616.947783251232,8320,3.5
2011,YR2011,Mexico,MEX,119361233,1964380,61.4013904678618,9000,4.25
2011,YR2011,"Micronesia, Fed. Sts.",FSM,103424,700,147.748571428571,3050,
2011,YR2011,Moldova,MDA,3559986,33850,124.08023421979,1990,
2011,YR2011,Monaco,MCO,37261,2,18630.5,,
2011,YR2011,Mongolia,MNG,2754209,1564120,1.77283722546924,2340,2.75
2011,YR2011,Montenegro,MNE,620644,13810,46.1445353159851,7210,
2011,YR2011,Morocco,MAR,32059424,446550,71.8337978937934,2940,3
2011,YR2011,Mozambique,MOZ,24581367,799380,31.2588913756708,490,4
2011,YR2011,Myanmar,MMR,52350763,676590,80.1340338900029,,
2011,YR2011,Namibia,NAM,2217618,824290,2.69360492657508,4990,
2011,YR2011,Nepal,NPL,27156367,147180,189.440997558423,610,2.75
2011,YR2011,Netherlands,NLD,16693074,41500,495.049644128114,53130,
2011,YR2011,New Caledonia,NCL,254000,18580,13.8949671772429,,
2011,YR2011,New Zealand,NZL,4384000,267710,16.6495765447571,31420,3.75
2011,YR2011,Nicaragua,NIC,5905146,130370,49.0705168688715,1590,3.75
2011,YR2011,Niger,NER,16511462,1267000,13.035021709955,370,
2011,YR2011,Nigeria,NGA,164192925,923770,180.279241740505,1710,4
2011,YR2011,Northern Mariana Islands,MNP,53230,460,115.717391304348,,
2011,YR2011,Norway,NOR,4953088,385178,13.5601476176397,89000,3.75
2011,YR2011,Oman,OMN,3024774,309500,9.773098546042,16910,
2011,YR2011,Pakistan,PAK,176166353,796100,228.526298515982,1140,3.5
2011,YR2011,Palau,PLW,20606,460,44.795652173913,9970,
2011,YR2011,Panama,PAN,3740282,75420,50.3131826741996,8110,3
2011,YR2011,Papua New Guinea,PNG,7012977,462840,15.485971381884,1470,
2011,YR2011,Paraguay,PRY,6573097,406752,16.544417316889,3120,3.75
2011,YR2011,Peru,PER,29614887,1285220,23.13663046875,4890,3
2011,YR2011,Philippines,PHL,95053437,300000,318.789405372774,2620,
2011,YR2011,Poland,POL,38534157,312680,125.834036508507,12620,3.25
2011,YR2011,Portugal,PRT,10557560,92210,115.269789278306,22620,
2011,YR2011,Puerto Rico,PRI,3686580,8870,415.623449830891,17320,
2011,YR2011,Qatar,QAT,1910902,11610,164.591042204996,70860,
2011,YR2011,Romania,ROM,20147528,238390,87.5332493374462,8520,3.25
2011,YR2011,Russian Federation,RUS,142956460,17098240,8.72916863845167,10820,
2011,YR2011,Rwanda,RWA,11144315,26340,451.735508715039,560,
2011,YR2011,Samoa,WSM,187429,2840,66.2293286219081,3460,3.5
2011,YR2011,San Marino,SMR,31048,60,517.466666666667,,
2011,YR2011,Sao Tome and Principe,STP,183177,960,190.809375,1240,
2011,YR2011,Saudi Arabia,SAU,27761728,2149690,12.9142936888575,21210,
2011,YR2011,Senegal,SEN,13330737,196710,69.2397912013712,1030,2.75
2011,YR2011,Serbia,SRB,7234099,88360,82.7132289046421,5900,
2011,YR2011,Seychelles,SYC,87441,460,190.089130434783,11300,
2011,YR2011,Sierra Leone,SLE,5865491,72300,81.2619977833195,500,3
2011,YR2011,Singapore,SGP,5183700,714,7405.28571428571,48630,
2011,YR2011,Sint Maarten (Dutch part),SXM,38486,34,1131.94117647059,,
2011,YR2011,Slovak Republic,SVK,5398384,49036,112.260522375645,17430,
2011,YR2011,Slovenia,SVN,2052843,20270,101.928649453823,24560,
2011,YR2011,Solomon Islands,SLB,537997,28900,19.2210432297249,1160,2
2011,YR2011,Somalia,SOM,9907903,637660,15.7935138840182,,
2011,YR2011,South Africa,ZAF,51553479,1219090,42.4976539251004,7050,
2011,YR2011,South Sudan,SSD,10381110,644330,,940,
2011,YR2011,Spain,ESP,46742697,505600,93.7102987169206,31280,
2011,YR2011,Sri Lanka,LKA,20869000,65610,332.785839579015,2580,3.5
2011,YR2011,St. Kitts and Nevis,KNA,52971,260,203.734615384615,13020,3.5
2011,YR2011,St. Lucia,LCA,179271,620,293.886885245902,6910,3.25
2011,YR2011,St. Martin (French part),MAF,30615,54.4,562.775735294118,,
2011,YR2011,St. Vincent and the Grenadines,VCT,109357,390,280.402564102564,6070,
2011,YR2011,Sudan,SDN,36430923,1879357.5,19.7020340909091,1420,
2011,YR2011,Suriname,SUR,529761,163820,3.39590384615385,8320,
2011,YR2011,Swaziland,SWZ,1212159,17360,70.4743604651163,2890,
2011,YR2011,Sweden,SWE,9449213,450300,23.027764780426,56010,3.75
2011,YR2011,Switzerland,CHE,7912398,41285,200.23276647434,79320,4.75
2011,YR2011,Syrian Arab Republic,SYR,21961676,185180,119.597429613898,,3.5
2011,YR2011,Tajikistan,TJK,7814850,142550,55.8363103743927,780,
2011,YR2011,Tanzania,TZA,46354607,947300,52.3307823436442,740,3.5
2011,YR2011,Thailand,THA,66576332,513120,130.314416019104,4620,3.75
2011,YR2011,Timor-Leste,TMP,1120392,14870,75.3457969065232,4080,
2011,YR2011,Togo,TGO,6472304,56790,118.998051112337,470,
2011,YR2011,Tonga,TON,104554,750,145.213888888889,3740,
2011,YR2011,Trinidad and Tobago,TTO,1333082,5130,259.860038986355,13810,
2011,YR2011,Tunisia,TUN,10673800,163610,68.7036560247168,4050,
2011,YR2011,Turkey,TUR,73058638,783560,94.9269623065629,10510,
2011,YR2011,Turkmenistan,TKM,5106668,488100,10.8668695337603,4660,
2011,YR2011,Turks and Caicos Islands,TCA,31726,950,33.3957894736842,,2.25
2011,YR2011,Tuvalu,TUV,9844,30,328.133333333333,5080,
2011,YR2011,Uganda,UGA,35148064,241550,175.907432060457,550,
2011,YR2011,Ukraine,UKR,45706100,603550,78.896119588483,3140,
2011,YR2011,United Arab Emirates,ARE,8925096,83600,106.7595215311,34400,
2011,YR2011,United Kingdom,GBR,63258918,243610,261.47612119208,40090,
2011,YR2011,United States,USA,311582564,9831510,34.0623436990977,50350,3.5
2011,YR2011,Uruguay,URY,3383486,176220,19.3319963432751,11840,
2011,YR2011,Uzbekistan,UZB,29339400,447400,68.9689703808181,1510,
2011,YR2011,Vanuatu,VUT,241778,12190,19.8341263330599,2850,2
2011,YR2011,"Venezuela, RB",VEN,29500625,912050,33.445524630123,11760,2.75
2011,YR2011,Vietnam,VNM,87840000,330951,283.290869803593,1390,
2011,YR2011,Virgin Islands (U.S.),VIR,105784,350,302.24,,
2011,YR2011,West Bank and Gaza,WBG,3927051,6020,652.334053156146,2560,
2011,YR2011,"Yemen, Rep.",YEM,23304206,527970,44.1392617004754,1080,2.25
2011,YR2011,Zambia,ZMB,13633796,752610,18.340031477421,1470,3.75
2011,YR2011,Zimbabwe,ZWE,13358738,390760,34.5320873723665,730,
,,,,,,,,
,,,,,,,,
,,,,,,,,
Data from database: World Development Indicators,,,,,,,,
Last Updated: 04/14/2015,,,,,,,,
